<?xml version="1.0" encoding="UTF-8" standalone="no"?>
<graphml xmlns="http://graphml.graphdrawing.org/xmlns" xmlns:java="http://www.yworks.com/xml/yfiles-common/1.0/java" xmlns:sys="http://www.yworks.com/xml/yfiles-common/markup/primitives/2.0" xmlns:x="http://www.yworks.com/xml/yfiles-common/markup/2.0" xmlns:xsi="http://www.w3.org/2001/XMLSchema-instance" xmlns:y="http://www.yworks.com/xml/graphml" xmlns:yed="http://www.yworks.com/xml/yed/3" xsi:schemaLocation="http://graphml.graphdrawing.org/xmlns http://www.yworks.com/xml/schema/graphml/1.1/ygraphml.xsd">
  <!--Created by yEd 3.17.1-->
  <key attr.name="Description" attr.type="string" for="graph" id="d0"/>
  <key for="port" id="d1" yfiles.type="portgraphics"/>
  <key for="port" id="d2" yfiles.type="portgeometry"/>
  <key for="port" id="d3" yfiles.type="portuserdata"/>
  <key attr.name="url" attr.type="string" for="node" id="d4"/>
  <key attr.name="description" attr.type="string" for="node" id="d5"/>
  <key for="node" id="d6" yfiles.type="nodegraphics"/>
  <key for="graphml" id="d7" yfiles.type="resources"/>
  <key attr.name="url" attr.type="string" for="edge" id="d8"/>
  <key attr.name="description" attr.type="string" for="edge" id="d9"/>
  <key for="edge" id="d10" yfiles.type="edgegraphics"/>
  <graph edgedefault="directed" id="G">
    <data key="d0"/>
    <node id="n0">
      <data key="d6">
        <y:ShapeNode>
          <y:Geometry height="173.0" width="195.0" x="1258.6241550445557" y="1105.7169227600098"/>
          <y:Fill color="#CCFFCC" transparent="false"/>
          <y:BorderStyle hasColor="false" raised="false" type="line" width="1.0"/>
          <y:NodeLabel alignment="center" autoSizePolicy="content" fontFamily="Dialog" fontSize="12" fontStyle="plain" hasBackgroundColor="false" hasLineColor="false" height="18.701171875" horizontalTextPosition="center" iconTextGap="4" modelName="custom" textColor="#000000" verticalTextPosition="bottom" visible="true" width="39.35546875" x="77.822265625" y="77.1494140625">Area 4<y:LabelModel>
              <y:SmartNodeLabelModel distance="4.0"/>
            </y:LabelModel>
            <y:ModelParameter>
              <y:SmartNodeLabelModelParameter labelRatioX="0.0" labelRatioY="0.0" nodeRatioX="0.0" nodeRatioY="0.0" offsetX="0.0" offsetY="0.0" upX="0.0" upY="-1.0"/>
            </y:ModelParameter>
          </y:NodeLabel>
          <y:Shape type="ellipse"/>
        </y:ShapeNode>
      </data>
    </node>
    <node id="n1">
      <data key="d6">
        <y:ShapeNode>
          <y:Geometry height="173.0" width="195.0" x="1256.8642706871033" y="914.778923034668"/>
          <y:Fill color="#CCFFCC" transparent="false"/>
          <y:BorderStyle hasColor="false" raised="false" type="line" width="1.0"/>
          <y:NodeLabel alignment="center" autoSizePolicy="content" fontFamily="Dialog" fontSize="12" fontStyle="plain" hasBackgroundColor="false" hasLineColor="false" height="33.40234375" horizontalTextPosition="center" iconTextGap="4" modelName="custom" textColor="#000000" verticalTextPosition="bottom" visible="true" width="94.046875" x="50.4765625" y="69.798828125">Area 0
(Backbone Area)<y:LabelModel>
              <y:SmartNodeLabelModel distance="4.0"/>
            </y:LabelModel>
            <y:ModelParameter>
              <y:SmartNodeLabelModelParameter labelRatioX="0.0" labelRatioY="0.0" nodeRatioX="0.0" nodeRatioY="0.0" offsetX="0.0" offsetY="0.0" upX="0.0" upY="-1.0"/>
            </y:ModelParameter>
          </y:NodeLabel>
          <y:Shape type="ellipse"/>
        </y:ShapeNode>
      </data>
    </node>
    <node id="n2">
      <data key="d6">
        <y:SVGNode>
          <y:Geometry height="19.583999633789062" width="69.15814971923828" x="1193.0253114700317" y="981.8409233093262"/>
          <y:Fill color="#CCCCFF" transparent="false"/>
          <y:BorderStyle color="#000000" type="line" width="1.0"/>
          <y:NodeLabel alignment="center" autoSizePolicy="content" fontFamily="Dialog" fontSize="12" fontStyle="plain" hasBackgroundColor="false" hasLineColor="false" height="33.40234375" horizontalTextPosition="center" iconTextGap="4" modelName="custom" textColor="#000000" verticalTextPosition="bottom" visible="true" width="50.6875" x="9.23532485961914" y="23.583999633789062">Router-1
(ABR)<y:LabelModel>
              <y:SmartNodeLabelModel distance="4.0"/>
            </y:LabelModel>
            <y:ModelParameter>
              <y:SmartNodeLabelModelParameter labelRatioX="0.0" labelRatioY="-0.5" nodeRatioX="0.0" nodeRatioY="0.5" offsetX="0.0" offsetY="4.0" upX="0.0" upY="-1.0"/>
            </y:ModelParameter>
          </y:NodeLabel>
          <y:SVGNodeProperties usingVisualBounds="true"/>
          <y:SVGModel svgBoundsPolicy="0">
            <y:SVGContent refid="1"/>
          </y:SVGModel>
        </y:SVGNode>
      </data>
    </node>
    <node id="n3">
      <data key="d6">
        <y:SVGNode>
          <y:Geometry height="19.583999633789062" width="69.15814971923828" x="1446.5450801849365" y="989.8409233093262"/>
          <y:Fill color="#CCCCFF" transparent="false"/>
          <y:BorderStyle color="#000000" type="line" width="1.0"/>
          <y:NodeLabel alignment="center" autoSizePolicy="content" fontFamily="Dialog" fontSize="12" fontStyle="plain" hasBackgroundColor="false" hasLineColor="false" height="33.40234375" horizontalTextPosition="center" iconTextGap="4" modelName="custom" textColor="#000000" verticalTextPosition="bottom" visible="true" width="47.353515625" x="10.90231704711914" y="23.583999633789062">Rouer-3
(ABR)<y:LabelModel>
              <y:SmartNodeLabelModel distance="4.0"/>
            </y:LabelModel>
            <y:ModelParameter>
              <y:SmartNodeLabelModelParameter labelRatioX="0.0" labelRatioY="-0.5" nodeRatioX="0.0" nodeRatioY="0.5" offsetX="0.0" offsetY="4.0" upX="0.0" upY="-1.0"/>
            </y:ModelParameter>
          </y:NodeLabel>
          <y:SVGNodeProperties usingVisualBounds="true"/>
          <y:SVGModel svgBoundsPolicy="0">
            <y:SVGContent refid="1"/>
          </y:SVGModel>
        </y:SVGNode>
      </data>
    </node>
    <node id="n4">
      <data key="d6">
        <y:SVGNode>
          <y:Geometry height="19.583999633789062" width="69.15814971923828" x="1321.5450801849365" y="1086.1329231262207"/>
          <y:Fill color="#CCCCFF" transparent="false"/>
          <y:BorderStyle color="#000000" type="line" width="1.0"/>
          <y:NodeLabel alignment="center" autoSizePolicy="content" fontFamily="Dialog" fontSize="12" fontStyle="plain" hasBackgroundColor="false" hasLineColor="false" height="33.40234375" horizontalTextPosition="center" iconTextGap="4" modelName="custom" textColor="#000000" verticalTextPosition="bottom" visible="true" width="50.6875" x="9.23532485961914" y="23.583999633789062">Router-4
(ABR)<y:LabelModel>
              <y:SmartNodeLabelModel distance="4.0"/>
            </y:LabelModel>
            <y:ModelParameter>
              <y:SmartNodeLabelModelParameter labelRatioX="0.0" labelRatioY="-0.5" nodeRatioX="0.0" nodeRatioY="0.5" offsetX="0.0" offsetY="4.0" upX="0.0" upY="-1.0"/>
            </y:ModelParameter>
          </y:NodeLabel>
          <y:SVGNodeProperties usingVisualBounds="true"/>
          <y:SVGModel svgBoundsPolicy="0">
            <y:SVGContent refid="1"/>
          </y:SVGModel>
        </y:SVGNode>
      </data>
    </node>
    <node id="n5">
      <data key="d6">
        <y:ShapeNode>
          <y:Geometry height="173.0" width="195.0" x="1145.8889350891113" y="1271.8388748168945"/>
          <y:Fill color="#CCFFCC" transparent="false"/>
          <y:BorderStyle hasColor="false" raised="false" type="line" width="1.0"/>
          <y:NodeLabel alignment="center" autoSizePolicy="content" fontFamily="Dialog" fontSize="12" fontStyle="plain" hasBackgroundColor="false" hasLineColor="false" height="18.701171875" horizontalTextPosition="center" iconTextGap="4" modelName="custom" textColor="#000000" verticalTextPosition="bottom" visible="true" width="39.35546875" x="77.822265625" y="77.1494140625">Area 5<y:LabelModel>
              <y:SmartNodeLabelModel distance="4.0"/>
            </y:LabelModel>
            <y:ModelParameter>
              <y:SmartNodeLabelModelParameter labelRatioX="0.0" labelRatioY="0.0" nodeRatioX="0.0" nodeRatioY="0.0" offsetX="0.0" offsetY="0.0" upX="0.0" upY="-1.0"/>
            </y:ModelParameter>
          </y:NodeLabel>
          <y:Shape type="ellipse"/>
        </y:ShapeNode>
      </data>
    </node>
    <node id="n6">
      <data key="d6">
        <y:SVGNode>
          <y:Geometry height="19.583999633789062" width="69.15814971923828" x="1252.730785369873" y="1259.1329231262207"/>
          <y:Fill color="#CCCCFF" transparent="false"/>
          <y:BorderStyle color="#000000" type="line" width="1.0"/>
          <y:NodeLabel alignment="center" autoSizePolicy="content" fontFamily="Dialog" fontSize="12" fontStyle="plain" hasBackgroundColor="false" hasLineColor="false" height="18.701171875" horizontalTextPosition="center" iconTextGap="4" modelName="custom" textColor="#000000" verticalTextPosition="bottom" visible="true" width="57.361328125" x="5.898410797119141" y="23.583999633789062">Router-41<y:LabelModel>
              <y:SmartNodeLabelModel distance="4.0"/>
            </y:LabelModel>
            <y:ModelParameter>
              <y:SmartNodeLabelModelParameter labelRatioX="0.0" labelRatioY="-0.5" nodeRatioX="0.0" nodeRatioY="0.5" offsetX="0.0" offsetY="4.0" upX="0.0" upY="-1.0"/>
            </y:ModelParameter>
          </y:NodeLabel>
          <y:SVGNodeProperties usingVisualBounds="true"/>
          <y:SVGModel svgBoundsPolicy="0">
            <y:SVGContent refid="1"/>
          </y:SVGModel>
        </y:SVGNode>
      </data>
    </node>
    <node id="n7">
      <data key="d6">
        <y:SVGNode>
          <y:Geometry height="19.583999633789062" width="26.498001098632812" x="1135.0941581726074" y="1375.930004119873"/>
          <y:Fill color="#CCCCFF" transparent="false"/>
          <y:BorderStyle color="#000000" type="line" width="1.0"/>
          <y:NodeLabel alignment="center" autoSizePolicy="content" fontFamily="Dialog" fontSize="12" fontStyle="plain" hasBackgroundColor="false" hasLineColor="false" height="18.701171875" horizontalTextPosition="center" iconTextGap="4" modelName="custom" textColor="#000000" verticalTextPosition="bottom" visible="true" width="32.6875" x="-3.0947494506835938" y="23.583999633789062">H110<y:LabelModel>
              <y:SmartNodeLabelModel distance="4.0"/>
            </y:LabelModel>
            <y:ModelParameter>
              <y:SmartNodeLabelModelParameter labelRatioX="0.0" labelRatioY="-0.5" nodeRatioX="0.0" nodeRatioY="0.5" offsetX="0.0" offsetY="4.0" upX="0.0" upY="-1.0"/>
            </y:ModelParameter>
          </y:NodeLabel>
          <y:SVGNodeProperties usingVisualBounds="true"/>
          <y:SVGModel svgBoundsPolicy="0">
            <y:SVGContent refid="2"/>
          </y:SVGModel>
        </y:SVGNode>
      </data>
    </node>
    <node id="n8">
      <data key="d6">
        <y:SVGNode>
          <y:Geometry height="19.583999633789062" width="69.15814971923828" x="1321.5450801849365" y="896.8409233093262"/>
          <y:Fill color="#CCCCFF" transparent="false"/>
          <y:BorderStyle color="#000000" type="line" width="1.0"/>
          <y:NodeLabel alignment="center" autoSizePolicy="content" fontFamily="Dialog" fontSize="12" fontStyle="plain" hasBackgroundColor="false" hasLineColor="false" height="33.40234375" horizontalTextPosition="center" iconTextGap="4" modelName="custom" textColor="#000000" verticalTextPosition="bottom" visible="true" width="50.6875" x="9.23532485961914" y="23.583999633789062">Router-2
(ABR)<y:LabelModel>
              <y:SmartNodeLabelModel distance="4.0"/>
            </y:LabelModel>
            <y:ModelParameter>
              <y:SmartNodeLabelModelParameter labelRatioX="0.0" labelRatioY="-0.5" nodeRatioX="0.0" nodeRatioY="0.5" offsetX="0.0" offsetY="4.0" upX="0.0" upY="-1.0"/>
            </y:ModelParameter>
          </y:NodeLabel>
          <y:SVGNodeProperties usingVisualBounds="true"/>
          <y:SVGModel svgBoundsPolicy="0">
            <y:SVGContent refid="1"/>
          </y:SVGModel>
        </y:SVGNode>
      </data>
    </node>
    <edge id="e0" source="n3" target="n1">
      <data key="d10">
        <y:GenericEdge configuration="com.yworks.edge.framed">
          <y:Path sx="0.0" sy="0.0" tx="0.0" ty="0.0"/>
          <y:LineStyle color="#000000" type="line" width="3.0"/>
          <y:Arrows source="none" target="standard"/>
        </y:GenericEdge>
      </data>
    </edge>
    <edge id="e1" source="n6" target="n6">
      <data key="d10">
        <y:ArcEdge>
          <y:Path sx="0.0" sy="0.0" tx="0.0" ty="0.0">
            <y:Point x="1287.309814453125" y="1268.9249267578125"/>
          </y:Path>
          <y:LineStyle color="#000000" type="line" width="1.0"/>
          <y:Arrows source="none" target="standard"/>
          <y:Arc height="0.0" ratio="1.0" type="fixedRatio"/>
        </y:ArcEdge>
      </data>
    </edge>
    <edge id="e2" source="n6" target="n4">
      <data key="d10">
        <y:ArcEdge>
          <y:Path sx="0.0" sy="0.0" tx="0.0" ty="0.0">
            <y:Point x="1188.19921875" y="1129.3154296875"/>
          </y:Path>
          <y:LineStyle color="#008000" type="line" width="2.0"/>
          <y:Arrows source="standard" target="standard"/>
          <y:EdgeLabel alignment="center" configuration="AutoFlippingLabel" distance="2.0" fontFamily="Dialog" fontSize="12" fontStyle="plain" hasBackgroundColor="false" hasLineColor="false" height="33.40234375" horizontalTextPosition="center" iconTextGap="4" modelName="custom" preferredPlacement="anywhere" ratio="0.5" textColor="#000000" verticalTextPosition="bottom" visible="true" width="223.451171875" x="-278.7159796666074" y="-90.26643535769267">Virtual Link
(Area not physically connected to Area 0)<y:LabelModel>
              <y:SmartEdgeLabelModel autoRotationEnabled="false" defaultAngle="0.0" defaultDistance="10.0"/>
            </y:LabelModel>
            <y:ModelParameter>
              <y:SmartEdgeLabelModelParameter angle="6.283185307179586" distance="97.1782830864311" distanceToCenter="true" position="left" ratio="1.0" segment="0"/>
            </y:ModelParameter>
            <y:PreferredPlacementDescriptor angle="0.0" angleOffsetOnRightSide="0" angleReference="absolute" angleRotationOnRightSide="co" distance="-1.0" frozen="true" placement="anywhere" side="anywhere" sideReference="relative_to_edge_flow"/>
          </y:EdgeLabel>
          <y:Arc height="143.6927490234375" ratio="3.08711576461792" type="fixedRatio"/>
        </y:ArcEdge>
      </data>
    </edge>
    <edge id="e3" source="n2" target="n8">
      <data key="d10">
        <y:ArcEdge>
          <y:Path sx="34.60973097011447" sy="0.0" tx="0.0" ty="0.0">
            <y:Point x="1287.919189453125" y="925.6553955078125"/>
          </y:Path>
          <y:LineStyle color="#000000" type="line" width="1.0"/>
          <y:Arrows source="none" target="none"/>
          <y:EdgeLabel alignment="center" configuration="AutoFlippingLabel" distance="2.0" fontFamily="Dialog" fontSize="12" fontStyle="plain" hasBackgroundColor="false" hasLineColor="false" height="18.701171875" horizontalTextPosition="center" iconTextGap="4" modelName="custom" preferredPlacement="anywhere" ratio="0.5" textColor="#000000" verticalTextPosition="bottom" visible="true" width="57.37890625" x="4.185822485411336" y="-33.49318313598633">1.0.2.0/24<y:LabelModel>
              <y:SmartEdgeLabelModel autoRotationEnabled="false" defaultAngle="0.0" defaultDistance="10.0"/>
            </y:LabelModel>
            <y:ModelParameter>
              <y:SmartEdgeLabelModelParameter angle="6.283185307179586" distance="21.86815395853942" distanceToCenter="true" position="right" ratio="0.0" segment="0"/>
            </y:ModelParameter>
            <y:PreferredPlacementDescriptor angle="0.0" angleOffsetOnRightSide="0" angleReference="absolute" angleRotationOnRightSide="co" distance="-1.0" frozen="true" placement="anywhere" side="anywhere" sideReference="relative_to_edge_flow"/>
          </y:EdgeLabel>
          <y:Arc height="31.66632080078125" ratio="1.0" type="fixedRatio"/>
        </y:ArcEdge>
      </data>
    </edge>
    <edge id="e4" source="n3" target="n8">
      <data key="d10">
        <y:ArcEdge>
          <y:Path sx="-25.135932927901802" sy="-6.8584064936805476" tx="0.0" ty="0.0">
            <y:Point x="1414.8587646484375" y="939.4988403320312"/>
          </y:Path>
          <y:LineStyle color="#000000" type="line" width="1.0"/>
          <y:Arrows source="none" target="none"/>
          <y:EdgeLabel alignment="center" configuration="AutoFlippingLabel" distance="2.0" fontFamily="Dialog" fontSize="12" fontStyle="plain" hasBackgroundColor="false" hasLineColor="false" height="18.701171875" horizontalTextPosition="center" iconTextGap="4" modelName="custom" preferredPlacement="anywhere" ratio="0.5" textColor="#000000" verticalTextPosition="bottom" visible="true" width="57.37890625" x="-73.63985822359905" y="-31.788024198347557">1.0.1.0/24<y:LabelModel>
              <y:SmartEdgeLabelModel autoRotationEnabled="false" defaultAngle="0.0" defaultDistance="10.0"/>
            </y:LabelModel>
            <y:ModelParameter>
              <y:SmartEdgeLabelModelParameter angle="6.283185307179586" distance="21.8694984483993" distanceToCenter="true" position="left" ratio="0.30579104824371356" segment="0"/>
            </y:ModelParameter>
            <y:PreferredPlacementDescriptor angle="0.0" angleOffsetOnRightSide="0" angleReference="absolute" angleRotationOnRightSide="co" distance="-1.0" frozen="true" placement="anywhere" side="anywhere" sideReference="relative_to_edge_flow"/>
          </y:EdgeLabel>
          <y:Arc height="-13.476835250854492" ratio="-0.40875011682510376" type="fixedRatio"/>
        </y:ArcEdge>
      </data>
    </edge>
    <edge id="e5" source="n4" target="n6">
      <data key="d10">
        <y:ArcEdge>
          <y:Path sx="0.0" sy="0.0" tx="0.0" ty="0.0">
            <y:Point x="1276.03759765625" y="1164.2550048828125"/>
          </y:Path>
          <y:LineStyle color="#000000" type="line" width="1.0"/>
          <y:Arrows source="none" target="none"/>
          <y:EdgeLabel alignment="center" configuration="AutoFlippingLabel" distance="2.0" fontFamily="Dialog" fontSize="12" fontStyle="plain" hasBackgroundColor="false" hasLineColor="false" height="18.701171875" horizontalTextPosition="center" iconTextGap="4" modelName="custom" preferredPlacement="anywhere" ratio="0.5" textColor="#000000" verticalTextPosition="bottom" visible="true" width="64.052734375" x="-55.24553532926848" y="45.72796167901447">1.4.15.0/24<y:LabelModel>
              <y:SmartEdgeLabelModel autoRotationEnabled="false" defaultAngle="0.0" defaultDistance="10.0"/>
            </y:LabelModel>
            <y:ModelParameter>
              <y:SmartEdgeLabelModelParameter angle="6.283185307179586" distance="20.52935861280386" distanceToCenter="true" position="left" ratio="0.6741604307296656" segment="0"/>
            </y:ModelParameter>
            <y:PreferredPlacementDescriptor angle="0.0" angleOffsetOnRightSide="0" angleReference="absolute" angleRotationOnRightSide="co" distance="-1.0" frozen="true" placement="anywhere" side="anywhere" sideReference="relative_to_edge_flow"/>
          </y:EdgeLabel>
          <y:Arc height="-49.16054916381836" ratio="-1.0561723709106445" type="fixedRatio"/>
        </y:ArcEdge>
      </data>
    </edge>
    <edge id="e6" source="n4" target="n3">
      <data key="d10">
        <y:ArcEdge>
          <y:Path sx="0.0" sy="0.0" tx="-26.025540181916547" ty="9.814446893618268">
            <y:Point x="1413.1937255859375" y="1061.3643798828125"/>
          </y:Path>
          <y:LineStyle color="#000000" type="line" width="1.0"/>
          <y:Arrows source="none" target="none"/>
          <y:EdgeLabel alignment="center" configuration="AutoFlippingLabel" distance="2.0" fontFamily="Dialog" fontSize="12" fontStyle="plain" hasBackgroundColor="false" hasLineColor="false" height="18.701171875" horizontalTextPosition="center" iconTextGap="4" modelName="custom" preferredPlacement="anywhere" ratio="0.5" textColor="#000000" verticalTextPosition="bottom" visible="true" width="57.37890625" x="-7.138278347555115" y="-53.794702261681095">1.0.3.0/24<y:LabelModel>
              <y:SmartEdgeLabelModel autoRotationEnabled="false" defaultAngle="0.0" defaultDistance="10.0"/>
            </y:LabelModel>
            <y:ModelParameter>
              <y:SmartEdgeLabelModelParameter angle="6.283185307179586" distance="24.383908906482265" distanceToCenter="true" position="left" ratio="0.14195429986204144" segment="-1"/>
            </y:ModelParameter>
            <y:PreferredPlacementDescriptor angle="0.0" angleOffsetOnRightSide="0" angleReference="absolute" angleRotationOnRightSide="co" distance="-1.0" frozen="true" placement="anywhere" side="anywhere" sideReference="relative_to_edge_flow"/>
          </y:EdgeLabel>
          <y:Arc height="-11.524101257324219" ratio="-0.3507249355316162" type="fixedRatio"/>
        </y:ArcEdge>
      </data>
    </edge>
    <edge id="e7" source="n4" target="n2">
      <data key="d10">
        <y:ArcEdge>
          <y:Path sx="0.0" sy="0.0" tx="27.028656997022807" ty="9.755609042377529">
            <y:Point x="1290.7421875" y="1064.3699951171875"/>
          </y:Path>
          <y:LineStyle color="#000000" type="line" width="1.0"/>
          <y:Arrows source="none" target="none"/>
          <y:EdgeLabel alignment="center" configuration="AutoFlippingLabel" distance="2.0" fontFamily="Dialog" fontSize="12" fontStyle="plain" hasBackgroundColor="false" hasLineColor="false" height="18.701171875" horizontalTextPosition="center" iconTextGap="4" modelName="custom" preferredPlacement="anywhere" ratio="0.5" textColor="#000000" verticalTextPosition="bottom" visible="true" width="57.37890625" x="-63.90058386293731" y="-70.90079408382371">1.0.4.0/24<y:LabelModel>
              <y:SmartEdgeLabelModel autoRotationEnabled="false" defaultAngle="0.0" defaultDistance="10.0"/>
            </y:LabelModel>
            <y:ModelParameter>
              <y:SmartEdgeLabelModelParameter angle="6.283185307179586" distance="23.317045725366903" distanceToCenter="true" position="right" ratio="0.690300016756619" segment="-1"/>
            </y:ModelParameter>
            <y:PreferredPlacementDescriptor angle="0.0" angleOffsetOnRightSide="0" angleReference="absolute" angleRotationOnRightSide="co" distance="-1.0" frozen="true" placement="anywhere" side="anywhere" sideReference="relative_to_edge_flow"/>
          </y:EdgeLabel>
          <y:Arc height="21.473947525024414" ratio="0.6192939281463623" type="fixedRatio"/>
        </y:ArcEdge>
      </data>
    </edge>
    <edge id="e8" source="n7" target="n6">
      <data key="d10">
        <y:ArcEdge>
          <y:Path sx="0.0" sy="0.0" tx="0.0" ty="0.0">
            <y:Point x="1210.655517578125" y="1318.7913818359375"/>
          </y:Path>
          <y:LineStyle color="#000000" type="line" width="1.0"/>
          <y:Arrows source="none" target="none"/>
          <y:EdgeLabel alignment="center" configuration="AutoFlippingLabel" distance="2.0" fontFamily="Dialog" fontSize="12" fontStyle="plain" hasBackgroundColor="false" hasLineColor="false" height="18.701171875" horizontalTextPosition="center" iconTextGap="4" modelName="custom" preferredPlacement="anywhere" ratio="0.5" textColor="#000000" verticalTextPosition="bottom" visible="true" width="64.052734375" x="54.65670951466018" y="-54.80733365496144">1.5.16.0/24<y:LabelModel>
              <y:SmartEdgeLabelModel autoRotationEnabled="false" defaultAngle="0.0" defaultDistance="10.0"/>
            </y:LabelModel>
            <y:ModelParameter>
              <y:SmartEdgeLabelModelParameter angle="6.283185307179586" distance="27.234520901066833" distanceToCenter="true" position="right" ratio="0.2777329200021472" segment="-1"/>
            </y:ModelParameter>
            <y:PreferredPlacementDescriptor angle="0.0" angleOffsetOnRightSide="0" angleReference="absolute" angleRotationOnRightSide="co" distance="-1.0" frozen="true" placement="anywhere" side="anywhere" sideReference="relative_to_edge_flow"/>
          </y:EdgeLabel>
          <y:Arc height="11.145313262939453" ratio="0.24558551609516144" type="fixedRatio"/>
        </y:ArcEdge>
      </data>
    </edge>
  </graph>
  <data key="d7">
    <y:Resources>
      <y:Resource id="1">&lt;?xml version="1.0" encoding="utf-8"?&gt;
&lt;svg version="1.1"
	 xmlns="http://www.w3.org/2000/svg" xmlns:xlink="http://www.w3.org/1999/xlink"
	 x="0px" y="0px" width="71px" height="20px" viewBox="-0.998 -0.189 71 20" enable-background="new -0.998 -0.189 71 20"
	 xml:space="preserve"&gt;
&lt;defs&gt;
&lt;/defs&gt;
&lt;linearGradient id="SVGID_1_" gradientUnits="userSpaceOnUse" x1="166.2588" y1="-255.0679" x2="97.0793" y2="-255.0679" gradientTransform="matrix(1 0 0 -1 -97.6001 -245.2793)"&gt;
	&lt;stop  offset="0" style="stop-color:#6E6E6E"/&gt;
	&lt;stop  offset="0.1059" style="stop-color:#707070"/&gt;
	&lt;stop  offset="0.1647" style="stop-color:#787878"/&gt;
	&lt;stop  offset="0.1939" style="stop-color:#808080"/&gt;
	&lt;stop  offset="0.4146" style="stop-color:#838383"/&gt;
	&lt;stop  offset="0.5499" style="stop-color:#8B8B8B"/&gt;
	&lt;stop  offset="0.6622" style="stop-color:#999999"/&gt;
	&lt;stop  offset="0.7614" style="stop-color:#AEAEAE"/&gt;
	&lt;stop  offset="0.7818" style="stop-color:#B3B3B3"/&gt;
&lt;/linearGradient&gt;
&lt;path fill="url(#SVGID_1_)" d="M67.531,7.236c0.005,0,0.017,0.002,0.017,0.002l-0.062-0.031c-0.027-0.015-0.055-0.027-0.082-0.041
	l-11.06-5.477c-1.225-0.615-3.346-1.203-4.713-1.307c0,0-5.071-0.383-16.858-0.383C25.138,0,17.44,0.431,17.44,0.431
	c-1.37,0.077-3.495,0.637-4.724,1.243L1.976,7.02h0.001C0.852,7.342,0,8.412,0,9.607v6.232c0,1.371,1.118,2.584,2.484,2.695
	c0,0,12.681,1.037,32.001,1.043c19.943,0.006,32.001-1.031,32.001-1.031c1.365-0.118,2.481-1.336,2.481-2.707V9.607
	C68.971,8.613,68.378,7.705,67.531,7.236z M34.96,5.869c-0.091,0-0.181,0-0.272,0c0.029,0,0.058,0,0.087,0
	C34.837,5.869,34.898,5.869,34.96,5.869z M33.312,5.873c-0.047,0-0.094,0-0.141,0C33.218,5.873,33.265,5.873,33.312,5.873z"/&gt;
&lt;linearGradient id="SVGID_2_" gradientUnits="userSpaceOnUse" x1="161.5615" y1="-258.8867" x2="102.6104" y2="-258.8867" gradientTransform="matrix(1 0 0 -1 -97.6001 -245.2793)"&gt;
	&lt;stop  offset="0" style="stop-color:#3C89C9"/&gt;
	&lt;stop  offset="0.0948" style="stop-color:#579FD8"/&gt;
	&lt;stop  offset="0.2096" style="stop-color:#70B3E6"/&gt;
	&lt;stop  offset="0.338" style="stop-color:#84C3F1"/&gt;
	&lt;stop  offset="0.4855" style="stop-color:#92CFF9"/&gt;
	&lt;stop  offset="0.6692" style="stop-color:#9AD5FE"/&gt;
	&lt;stop  offset="1" style="stop-color:#9CD7FF"/&gt;
&lt;/linearGradient&gt;
&lt;path fill="url(#SVGID_2_)" stroke="#8D8D8D" stroke-width="0.3116" stroke-miterlimit="10" d="M62.746,9.363
	c-0.643-0.209-18.186-0.222-28.259-0.222C26.25,9.142,6.7,9.177,6.7,9.177h0.001c-0.961,0.274-1.689,1.19-1.689,2.212v3.878
	c0,1.172,0.956,2.209,2.124,2.304c0,0,10.837,0.498,27.351,0.504c17.047,0.004,27.355-0.494,27.355-0.494
	c1.167-0.101,2.121-1.142,2.121-2.313V11.39C63.962,10.539,63.389,9.572,62.746,9.363z"/&gt;
&lt;path opacity="0.29" fill="#FFFFFF" enable-background="new    " d="M62.746,9.363c-0.643-0.209-18.186-0.222-28.259-0.222
	C26.25,9.142,6.7,9.177,6.7,9.177h0.001c-0.961,0.274-1.689,1.19-1.689,2.212v3.878l58.95-2.039v-1.839
	C63.962,10.539,63.389,9.572,62.746,9.363z"/&gt;
&lt;rect x="66.322" y="10.801" fill="#C8FF00" stroke="#717171" stroke-width="0.0623" stroke-miterlimit="10" width="2.805" height="1.143"/&gt;
&lt;polygon fill="#4D4D4D" stroke="#D9F1FF" stroke-width="0.3739" stroke-miterlimit="10" points="49.29,10.748 42.436,10.748 
	42.436,15.734 44.512,15.734 44.512,16.412 47.213,16.412 47.212,15.734 49.29,15.734 "/&gt;
&lt;polygon fill="#4D4D4D" stroke="#D9F1FF" stroke-width="0.3739" stroke-miterlimit="10" points="37.79,10.748 30.935,10.748 
	30.935,15.734 33.012,15.734 33.012,16.412 35.713,16.412 35.712,15.734 37.79,15.734 "/&gt;
&lt;polygon fill="#4D4D4D" stroke="#D9F1FF" stroke-width="0.3739" stroke-miterlimit="10" points="26.29,10.748 19.435,10.748 
	19.435,15.734 21.512,15.734 21.512,16.412 24.213,16.412 24.212,15.734 26.29,15.734 "/&gt;
&lt;polygon fill="#4D4D4D" stroke="#D9F1FF" stroke-width="0.3739" stroke-miterlimit="10" points="14.79,10.748 7.935,10.748 
	7.935,15.734 10.012,15.734 10.012,16.412 12.713,16.412 12.712,15.734 14.79,15.734 "/&gt;
&lt;polygon fill="#4D4D4D" stroke="#D9F1FF" stroke-width="0.3739" stroke-miterlimit="10" points="60.79,10.748 53.936,10.748 
	53.936,15.734 56.012,15.734 56.012,16.412 58.713,16.412 58.712,15.734 60.79,15.734 "/&gt;
&lt;/svg&gt;
</y:Resource>
      <y:Resource id="2">&lt;?xml version="1.0" encoding="utf-8"?&gt;
&lt;svg version="1.1"
	 xmlns="http://www.w3.org/2000/svg" xmlns:xlink="http://www.w3.org/1999/xlink"
	 x="0px" y="0px" width="68px" height="46px" viewBox="-0.064 -0.075 68 46" enable-background="new -0.064 -0.075 68 46"
	 xml:space="preserve"&gt;
&lt;defs&gt;
&lt;/defs&gt;
&lt;radialGradient id="SVGID_1_" cx="478.8413" cy="1991.2729" r="21.6001" gradientTransform="matrix(1.15 0 0 1 -526.6598 -1982.4023)" gradientUnits="userSpaceOnUse"&gt;
	&lt;stop  offset="0" style="stop-color:#F2F2F2"/&gt;
	&lt;stop  offset="1" style="stop-color:#8D8D8D"/&gt;
&lt;/radialGradient&gt;
&lt;path fill="url(#SVGID_1_)" d="M10.263,1.903c0-0.987,0.807-1.794,1.794-1.794h43.279c0.986,0,1.795,0.807,1.795,1.794v26.978
	c0,0.987-0.809,1.794-1.795,1.794h-43.28c-0.987,0-1.794-0.807-1.794-1.794L10.263,1.903L10.263,1.903z"/&gt;
&lt;path display="none" fill="none" stroke="#3C89C9" stroke-width="0.2185" stroke-linecap="round" stroke-linejoin="round" stroke-miterlimit="10" d="
	M10.263,1.903c0-0.987,0.807-1.794,1.794-1.794h43.279c0.986,0,1.795,0.807,1.795,1.794v26.978c0,0.987-0.809,1.794-1.795,1.794
	h-43.28c-0.987,0-1.794-0.807-1.794-1.794L10.263,1.903L10.263,1.903z"/&gt;
&lt;radialGradient id="SVGID_2_" cx="455.894" cy="1983.9624" r="47.8462" fx="493.5344" fy="1977.5143" gradientTransform="matrix(1.1935 0 0 1 -509.6731 -1982.4023)" gradientUnits="userSpaceOnUse"&gt;
	&lt;stop  offset="0" style="stop-color:#4D4D4D"/&gt;
	&lt;stop  offset="1" style="stop-color:#999999"/&gt;
&lt;/radialGradient&gt;
&lt;path fill="url(#SVGID_2_)" d="M11.18,2.819c0-0.987,0.807-1.794,1.794-1.794h41.649c0.986,0,1.795,0.807,1.795,1.794v24.943
	c0,0.985-0.809,1.794-1.795,1.794H12.974c-0.987,0-1.794-0.809-1.794-1.794V2.819z"/&gt;
&lt;radialGradient id="SVGID_3_" cx="456.8843" cy="1984.0386" r="30.6699" gradientTransform="matrix(1.1923 0 0 1 -510.1314 -1982.4023)" gradientUnits="userSpaceOnUse"&gt;
	&lt;stop  offset="0" style="stop-color:#9CD7FF"/&gt;
	&lt;stop  offset="1" style="stop-color:#3C89C9"/&gt;
&lt;/radialGradient&gt;
&lt;path fill="url(#SVGID_3_)" d="M11.689,3.228c0-0.987,0.807-1.794,1.794-1.794h40.633c0.986,0,1.795,0.807,1.795,1.794v24.126
	c0,0.986-0.809,1.794-1.795,1.794H13.483c-0.987,0-1.794-0.809-1.794-1.794V3.228z"/&gt;
&lt;path opacity="0.24" fill="#F2F2F2" d="M11.689,21.472V3.228c0-0.987,0.807-1.794,1.794-1.794h40.633
	c0.986,0,1.795,0.807,1.795,1.794v9.454c0,0.987-10.518,5.21-18.256,6.795C29.917,21.062,11.689,21.472,11.689,21.472z"/&gt;
&lt;linearGradient id="SVGID_4_" gradientUnits="userSpaceOnUse" x1="131.3501" y1="-212.2612" x2="131.3501" y2="-170.6274" gradientTransform="matrix(1 0 0 -1 -97.6001 -165.0498)"&gt;
	&lt;stop  offset="0" style="stop-color:#4D4D4D"/&gt;
	&lt;stop  offset="0.0667" style="stop-color:#717171"/&gt;
	&lt;stop  offset="0.069" style="stop-color:#757575"/&gt;
	&lt;stop  offset="0.0831" style="stop-color:#8C8C8C"/&gt;
	&lt;stop  offset="0.0996" style="stop-color:#9E9E9E"/&gt;
	&lt;stop  offset="0.1196" style="stop-color:#AAAAAA"/&gt;
	&lt;stop  offset="0.1466" style="stop-color:#B1B1B1"/&gt;
	&lt;stop  offset="0.2121" style="stop-color:#B3B3B3"/&gt;
	&lt;stop  offset="1" style="stop-color:#C5C5C5"/&gt;
&lt;/linearGradient&gt;
&lt;path fill="url(#SVGID_4_)" d="M58.385,32.234c-0.689-0.856-2.154-1.559-3.254-1.559H12c-1.1,0-2.552,0.711-3.227,1.579
	l-7.546,9.717C0,43.55,0.042,43.785,0,44.55v0.125c0.056,0.393,0.311,1.002,1.248,1.002h64.75c0.75,0.002,1.5-0.252,1.5-1.002V44.55
	c0-0.813,0-0.813-1.254-2.559L58.385,32.234z"/&gt;
&lt;path opacity="0.23" fill="#F2F2F2" enable-background="new    " d="M58.385,32.234c-0.689-0.856-2.154-1.559-3.254-1.559H12
	c-1.1,0-2.552,0.711-3.227,1.579l-7.055,9.085l58.098-7.33L58.385,32.234z"/&gt;
&lt;path fill="#6E6E6E" d="M59.75,37.205c0.344,0.431,0.172,0.783-0.377,0.783H8.249c-0.55,0-0.742-0.369-0.427-0.819l2.786-3.986
	c0.315-0.45,1.023-0.819,1.573-0.819h42.729c0.551,0,1.279,0.354,1.623,0.783L59.75,37.205z"/&gt;
&lt;path fill="#6E6E6E" d="M40.43,41.906c0.072,0.217-0.057,0.395-0.285,0.395H26.727c-0.229,0-0.364-0.18-0.3-0.398l0.822-2.826
	c0.064-0.221,0.303-0.399,0.532-0.399h11.167c0.229,0,0.475,0.179,0.547,0.396L40.43,41.906z"/&gt;
&lt;/svg&gt;
</y:Resource>
    </y:Resources>
  </data>
</graphml>
